Exploratory Data Analysis (EDA)
…
How many books has each reader rated?

book_ratings %>% 
  filter(Book.Rating != 0) %>%     # remove the zero ratings
  group_by(User.ID) %>% 
  count() %>%                      # number of books rated per reader
  group_by(n) %>%                  
  count() %>%                      # number of readers that rated x books
  rename("number of books rated" = n, "number of readers" = nn)
#> # A tibble: 32 x 2
#> # Groups:   number of books rated [32]
#>    `number of books rated` `number of readers`
#>                      <int>               <int>
#>  1                       1                3631
#>  2                       2                1814
#>  3                       3                 753
#>  4                       4                 446
#>  5                       5                 249
#>  6                       6                 156
#>  7                       7                 126
#>  8                       8                  74
#>  9                       9                  50
#> 10                      10                  48
#> # ... with 22 more rows
…
Let’s see which users have rated the most books

book_ratings %>% 
  filter(Book.Rating != 0) %>%
  group_by(User.ID) %>% 
  count() %>% 
  arrange(desc(n)) %>% 
  head(50)
#> # A tibble: 50 x 2
#> # Groups:   User.ID [50]
#>    User.ID     n
#>      <int> <int>
#>  1   11676    96
#>  2   16795    56
#>  3   95359    45
#>  4  240567    37
#>  5   60244    30
#>  6  105979    30
#>  7    6575    28
#>  8  135149    28
#>  9  204864    26
#> 10  104636    25
#> # ... with 40 more rows

Let’s see which books have the most ratings

book_ratings %>% 
  filter(Book.Rating != 0) %>%
  select(User.ID, ISBN, Book.Rating) %>% 
  group_by(ISBN) %>% 
  count() %>% 
  arrange(desc(n)) %>% 
  head(50)%>% 
  left_join(book_info)
#> Joining, by = "ISBN"
#> # A tibble: 50 x 4
#> # Groups:   ISBN [?]
#>    ISBN         n Book.Title                                 Book.Author  
#>    <chr>    <int> <chr>                                      <chr>        
#>  1 0316666~   523 the lovely bones: a novel                  alice sebold 
#>  2 0385504~   387 the da vinci code                          dan brown    
#>  3 0971880~   309 wild animus                                rich shapero 
#>  4 0312195~   278 the red tent (bestselling backlist)        anita diamant
#>  5 0060928~   247 divine secrets of the ya-ya sisterhood: a~ rebecca wells
#>  6 0142001~   244 the secret life of bees                    sue monk kidd
#>  7 0590353~   242 harry potter and the sorcerer's stone (ha~ j. k. rowling
#>  8 0446672~   225 where the heart is (oprah's book club (pa~ billie letts 
#>  9 0452282~   219 girl with a pearl earring                  tracy cheval~
#> 10 0671027~   216 angels &amp; demons                        dan brown    
#> # ... with 40 more rows
…
